…
## What is mean total number of steps taken per day?

First, we want to calculate total steps taken each day.  This can be done by filtering out NAs, grouping by date, and creating a table by mean steps


```r
totalsteps <- activity %>% group_by(date) %>% filter(!is.na(steps)) %>% summarise(sum(steps))
totalsteps <- rename(totalsteps,steps='sum(steps)')

totalsteps
```

```
## # A tibble: 53 x 2
##    date       steps
##    <date>     <int>
##  1 2012-10-02   126
##  2 2012-10-03 11352
##  3 2012-10-04 12116
##  4 2012-10-05 13294
##  5 2012-10-06 15420
##  6 2012-10-07 11015
##  7 2012-10-09 12811
##  8 2012-10-10  9900
##  9 2012-10-11 10304
## 10 2012-10-12 17382
## # ... with 43 more rows
```
…
activitymiss$weekfactor <- ifelse(activitymiss$weekday == 'Sunday' | activitymiss$weekday == 'Saturday',"weekend","weekday")
```

Then we need to create a new table averaging steps-per-interval across all weekdays and all weekend days


```r
wdayintervalsteps <- activitymiss %>% group_by(weekfactor,interval) %>% summarise(mean(steps))
wdayintervalsteps <- rename(wdayintervalsteps,steps='mean(steps)')

wdayintervalsteps
```

```
## # A tibble: 576 x 3
## # Groups:   weekfactor [2]
##    weekfactor interval  steps
##    <chr>         <int>  <dbl>
##  1 weekday           0 2.25  
##  2 weekday           5 0.445 
##  3 weekday          10 0.173 
##  4 weekday          15 0.198 
##  5 weekday          20 0.0990
##  6 weekday          25 1.59  
##  7 weekday          30 0.693 
##  8 weekday          35 1.14  
##  9 weekday          40 0     
## 10 weekday          45 1.80  
## # ... with 566 more rows
```
…
